// Jest Snapshot v1, https://goo.gl/fbAQLP

exports[`renders correctly 1`] = `
<div
  className="CharacterBox__Wrapper-sc-1xlygyu-0 gloFdM"
>
  <img
    height="300px"
    src="https://starwars-visualguide.com/assets/img/characters/1.jpg"
    width="200px"
  />
  <div
    className="CharacterBox__TextContainer-sc-1xlygyu-1 idTZQr"
  >
    <div
      className="CharacterBox__Title-sc-1xlygyu-2 iCgRZO"
    >
      Luke Skywalker
    </div>
    <div
      className="CharacterBox__SubTitle-sc-1xlygyu-3 RyAjt"
    >
      The Empire Strikes Back
    </div>
  </div>
</div>
`;
